<?xml version="1.0" encoding="UTF-8"?>
<testng-results ignored="1" total="5" passed="4" failed="0" skipped="0">
  <reporter-output>
  </reporter-output>
  <suite started-at="2021-02-10T19:34:50Z" name="All Test Suite" finished-at="2021-02-10T19:35:05Z" duration-ms="15900">
    <groups>
    </groups>
    <test started-at="2021-02-10T19:34:50Z" name="base" finished-at="2021-02-10T19:35:05Z" duration-ms="15900">
      <class name="ui.CAMTest">
        <test-method is-config="true" signature="beforeSuiteSetup()[pri:0, instance:ui.CAMTest@40e6dfe1]" started-at="2021-02-10T19:34:48Z" name="beforeSuiteSetup" finished-at="2021-02-10T19:34:50Z" duration-ms="1465" status="PASS">
          <reporter-output>
          </reporter-output>
        </test-method> <!-- beforeSuiteSetup -->
        <test-method is-config="true" signature="initialize()[pri:0, instance:ui.CAMTest@40e6dfe1]" started-at="2021-02-10T19:34:51Z" name="initialize" finished-at="2021-02-10T19:34:54Z" duration-ms="3486" status="PASS">
          <reporter-output>
          </reporter-output>
        </test-method> <!-- initialize -->
        <test-method signature="test(java.lang.String, java.util.HashMap)[pri:0, instance:ui.CAMTest@40e6dfe1]" started-at="2021-02-10T19:34:54Z" name="test" finished-at="2021-02-10T19:34:54Z" duration-ms="35" status="PASS">
          <params>
            <param index="0">
              <value>
                <![CDATA[Verify able to select Military  and India for SF Role]]>
              </value>
            </param>
            <param index="1">
              <value>
                <![CDATA[{Role=SF, PartyID=5.16165165E8, AccountNo=168484849464, Proof=Military, Country=INDIA, SearchType=ID, Location=FL}]]>
              </value>
            </param>
          </params>
          <reporter-output>
          </reporter-output>
        </test-method> <!-- test -->
        <test-method is-config="true" signature="wrapup()[pri:0, instance:ui.CAMTest@40e6dfe1]" started-at="2021-02-10T19:34:54Z" name="wrapup" finished-at="2021-02-10T19:34:55Z" duration-ms="869" status="PASS">
          <reporter-output>
          </reporter-output>
        </test-method> <!-- wrapup -->
        <test-method is-config="true" signature="initialize()[pri:0, instance:ui.CAMTest@40e6dfe1]" started-at="2021-02-10T19:34:55Z" name="initialize" finished-at="2021-02-10T19:34:58Z" duration-ms="2787" status="PASS">
          <reporter-output>
          </reporter-output>
        </test-method> <!-- initialize -->
        <test-method signature="test(java.lang.String, java.util.HashMap)[pri:0, instance:ui.CAMTest@40e6dfe1]" started-at="2021-02-10T19:34:58Z" name="test" finished-at="2021-02-10T19:34:58Z" duration-ms="1" status="PASS">
          <params>
            <param index="0">
              <value>
                <![CDATA[Verify able to select AMEX  and USA for BCM Role]]>
              </value>
            </param>
            <param index="1">
              <value>
                <![CDATA[{Role=BCM, PartyID=6.54164156E8, AccountNo=8494984165416, Proof=AMEX, Country=USA, SearchType=ID, Location=TX}]]>
              </value>
            </param>
          </params>
          <reporter-output>
          </reporter-output>
        </test-method> <!-- test -->
        <test-method is-config="true" signature="wrapup()[pri:0, instance:ui.CAMTest@40e6dfe1]" started-at="2021-02-10T19:34:58Z" name="wrapup" finished-at="2021-02-10T19:34:59Z" duration-ms="882" status="PASS">
          <reporter-output>
          </reporter-output>
        </test-method> <!-- wrapup -->
        <test-method is-config="true" signature="initialize()[pri:0, instance:ui.CAMTest@40e6dfe1]" started-at="2021-02-10T19:34:59Z" name="initialize" finished-at="2021-02-10T19:35:01Z" duration-ms="2594" status="PASS">
          <reporter-output>
          </reporter-output>
        </test-method> <!-- initialize -->
        <test-method signature="test(java.lang.String, java.util.HashMap)[pri:0, instance:ui.CAMTest@40e6dfe1]" started-at="2021-02-10T19:35:01Z" name="test" finished-at="2021-02-10T19:35:01Z" duration-ms="1" status="PASS">
          <params>
            <param index="0">
              <value>
                <![CDATA[Verify able to select Driving license and Eng for CSS Role]]>
              </value>
            </param>
            <param index="1">
              <value>
                <![CDATA[{Role=CSS, PartyID=1.56165165E8, AccountNo=594984181161, Proof=Driving license, Country=ENG, SearchType=ID, Location=GA}]]>
              </value>
            </param>
          </params>
          <reporter-output>
          </reporter-output>
        </test-method> <!-- test -->
        <test-method is-config="true" signature="wrapup()[pri:0, instance:ui.CAMTest@40e6dfe1]" started-at="2021-02-10T19:35:01Z" name="wrapup" finished-at="2021-02-10T19:35:02Z" duration-ms="784" status="PASS">
          <reporter-output>
          </reporter-output>
        </test-method> <!-- wrapup -->
        <test-method is-config="true" signature="initialize()[pri:0, instance:ui.CAMTest@40e6dfe1]" started-at="2021-02-10T19:35:02Z" name="initialize" finished-at="2021-02-10T19:35:05Z" duration-ms="2457" status="PASS">
          <reporter-output>
          </reporter-output>
        </test-method> <!-- initialize -->
        <test-method signature="test(java.lang.String, java.util.HashMap)[pri:0, instance:ui.CAMTest@40e6dfe1]" started-at="2021-02-10T19:35:05Z" name="test" finished-at="2021-02-10T19:35:05Z" duration-ms="1" status="PASS">
          <params>
            <param index="0">
              <value>
                <![CDATA[Verify able to select Passport and AUS for ICC Role]]>
              </value>
            </param>
            <param index="1">
              <value>
                <![CDATA[{Role=ICC, PartyID=1.56165165E8, AccountNo=594984181161, Proof=Passport, Country=AUS, SearchType=ID, Location=MA}]]>
              </value>
            </param>
          </params>
          <reporter-output>
          </reporter-output>
        </test-method> <!-- test -->
        <test-method is-config="true" signature="wrapup()[pri:0, instance:ui.CAMTest@40e6dfe1]" started-at="2021-02-10T19:35:05Z" name="wrapup" finished-at="2021-02-10T19:35:05Z" duration-ms="859" status="PASS">
          <reporter-output>
          </reporter-output>
        </test-method> <!-- wrapup -->
        <test-method is-config="true" signature="close()[pri:0, instance:ui.CAMTest@40e6dfe1]" started-at="2021-02-10T19:35:06Z" name="close" finished-at="2021-02-10T19:35:06Z" duration-ms="700" status="PASS">
          <reporter-output>
          </reporter-output>
        </test-method> <!-- close -->
      </class> <!-- ui.CAMTest -->
    </test> <!-- base -->
  </suite> <!-- All Test Suite -->
</testng-results>
